<svg xmlns="http://www.w3.org/2000/svg" xmlns:xlink="http://www.w3.org/1999/xlink" width="146.056" height="35.133" viewBox="0 0 146.056 35.133">
  <defs>
    <clipPath id="clip-path">
      <rect id="Rectangle_5" data-name="Rectangle 5" width="146.056" height="35.132" fill="none"/>
    </clipPath>
  </defs>
  <g id="Groupe_20" data-name="Groupe 20" transform="translate(0 0)">
    <g id="Groupe_19" data-name="Groupe 19" transform="translate(0 0)" clip-path="url(#clip-path)">
      <path id="Tracé_7" data-name="Tracé 7" d="M153.834,8.571a4.288,4.288,0,1,1,1.836-.417,4.285,4.285,0,0,1-1.836.417M153.829.847A3.436,3.436,0,0,0,152.68,7.52a3.435,3.435,0,0,0,4.254-4.711,3.414,3.414,0,0,0-1.951-1.762,3.449,3.449,0,0,0-1.154-.2" transform="translate(-86.166 0)" fill="#fff"/>
      <path id="Tracé_8" data-name="Tracé 8" d="M156.384,9.24a2.406,2.406,0,1,1,1.03-.233,2.412,2.412,0,0,1-1.03.233m-.005-3.969a1.561,1.561,0,1,0,1.41.891h0a1.561,1.561,0,0,0-1.41-.89" transform="translate(-88.715 -2.547)" fill="#fff"/>
      <path id="Tracé_9" data-name="Tracé 9" d="M20.519,28.928q-1.375.65-1.891.02a4.219,4.219,0,0,1-.516-2.5V19.223a6.444,6.444,0,0,0-1.8-4.8q-1.8-1.776-5.618-1.777a28.5,28.5,0,0,0-4.107.363q-2.428.364-5.025.975v5.655h.191A54.16,54.16,0,0,1,6.8,15.956a7.8,7.8,0,0,1,3.516-1.509q.764,0,1.07.974a12.59,12.59,0,0,1,.306,3.344v2.15c-.094-.036-.187-.072-.287-.106a11.87,11.87,0,0,0-1.758-.44,10.218,10.218,0,0,0-1.7-.153,9.022,9.022,0,0,0-3.936.631,6.671,6.671,0,0,0-2.924,2.215A5.539,5.539,0,0,0,0,26.445a6.563,6.563,0,0,0,.707,2.98,5.638,5.638,0,0,0,2.12,2.293A6.243,6.243,0,0,0,6.19,32.6a6.636,6.636,0,0,0,3.21-.746,6.5,6.5,0,0,0,2.159-1.8c.154-.206.285-.408.4-.606a4.558,4.558,0,0,0,.951,1.772,4.317,4.317,0,0,0,3.4,1.376,4.369,4.369,0,0,0,3-.994,3.772,3.772,0,0,0,1.28-2.56Zm-9.247-.191a2.8,2.8,0,0,1-1.49.42,2.8,2.8,0,0,1-2.293-1.032,4.038,4.038,0,0,1-.841-2.636,3.949,3.949,0,0,1,.44-1.892,2.72,2.72,0,0,1,1.357-1.223,5.018,5.018,0,0,1,2.292-.324q.382.038.764.057c.069,0,.125.02.192.026V27.4a8.508,8.508,0,0,0,.057.969,3.272,3.272,0,0,1-.478.368" transform="translate(0 -7.289)" fill="#fff"/>
      <path id="Tracé_10" data-name="Tracé 10" d="M72.472,31.68q-.458-1.72-.726-2.981a13.02,13.02,0,0,1-.267-2.713V19.032a6.125,6.125,0,0,0-1.8-4.7,6.342,6.342,0,0,0-4.509-1.681,6.649,6.649,0,0,0-4.223,1.357,7.852,7.852,0,0,0-1.93,2.146V12.879H51.57v.153l.114.42q.458,1.72.707,2.981a14,14,0,0,1,.249,2.713v6.84a13.983,13.983,0,0,1-.249,2.713q-.248,1.261-.707,2.981l-.114.421v.153h8.559V32.1l-.114-.421q-.458-1.72-.726-2.981a13.078,13.078,0,0,1-.267-2.713V17.477a6.036,6.036,0,0,1,3.018-.929,3.237,3.237,0,0,1,2.2.841,3.3,3.3,0,0,1,.86,2.521v6.076a14.051,14.051,0,0,1-.248,2.713q-.249,1.261-.707,2.981l-.115.421v.153h8.56V32.1Z" transform="translate(-29.713 -7.289)" fill="#fff"/>
      <path id="Tracé_11" data-name="Tracé 11" d="M117.415,12.224a5.839,5.839,0,0,0-2.77,1.815,10.582,10.582,0,0,0-1.529,2.436V12.51h-7.451v.153l.114.42q.458,1.72.707,2.98a14,14,0,0,1,.249,2.713v6.84a13.989,13.989,0,0,1-.249,2.713q-.248,1.261-.707,2.981l-.114.42v.153h8.559v-.153l-.114-.42q-.459-1.72-.727-2.981a13.085,13.085,0,0,1-.267-2.713V17.434a4.274,4.274,0,0,1,2.275-.663,5.137,5.137,0,0,1,2.541.707,8.783,8.783,0,0,1,2.14,1.758h.191l.994-6.8a6.224,6.224,0,0,0-3.841-.21" transform="translate(-60.882 -6.92)" fill="#fff"/>
      <path id="Tracé_12" data-name="Tracé 12" d="M156.269,50.568a.851.851,0,0,1-.166-.618V47.477a1.677,1.677,0,0,0-.519-1.3,2.181,2.181,0,0,0-1.523-.474,6.414,6.414,0,0,0-1.1.11,11.123,11.123,0,0,0-1.275.309v1.413h.056a8.537,8.537,0,0,1,1.237-.988,2,2,0,0,1,1-.392.606.606,0,0,1,.535.3,1.816,1.816,0,0,1,.193.96v.678a2.36,2.36,0,0,0-.259-.075,2.565,2.565,0,0,0-.447-.061,3.074,3.074,0,0,0-1.342.094,2.087,2.087,0,0,0-.993.624,1.505,1.505,0,0,0-.37,1.015,1.77,1.77,0,0,0,.2.833,1.539,1.539,0,0,0,.612.629,1.872,1.872,0,0,0,.96.238,1.992,1.992,0,0,0,1.623-.779c.022-.029.033-.056.053-.084a1.1,1.1,0,0,0,.251.52,1.04,1.04,0,0,0,.811.32,1.055,1.055,0,0,0,.662-.2.923.923,0,0,0,.342-.546l-.021-.033q-.366.143-.53-.011m-1.805-.155a1.094,1.094,0,0,1-.657.221,1.006,1.006,0,0,1-.762-.314,1.132,1.132,0,0,1-.3-.811,1.1,1.1,0,0,1,.2-.651,1.135,1.135,0,0,1,.613-.414,2.158,2.158,0,0,1,.972-.038,1.106,1.106,0,0,0,.176.008v1.736c0,.011,0,.02,0,.031a1.615,1.615,0,0,1-.25.234" transform="translate(-87.176 -26.331)" fill="#fff"/>
      <path id="Tracé_13" data-name="Tracé 13" d="M165.287,51.381a1.013,1.013,0,0,0,.767,1,4.949,4.949,0,0,0,1.684.276,4.772,4.772,0,0,0,1.954-.37,1.336,1.336,0,0,0,.828-1.331,1.415,1.415,0,0,0-.458-1.12,1.831,1.831,0,0,0-1.253-.4h-1.8a1.89,1.89,0,0,1-.584-.072.285.285,0,0,1-.21-.293.451.451,0,0,1,.3-.4,1.364,1.364,0,0,1,.208-.076,2.725,2.725,0,0,0,2.033-.056,2.159,2.159,0,0,0,.889-.674,1.686,1.686,0,0,0,.348-1.065,1.66,1.66,0,0,0-.342-1.054,2.11,2.11,0,0,0-.537-.466,1.407,1.407,0,0,1,.5-.1,1.512,1.512,0,0,1,.74.189l.022-.011.21-1.093a1.506,1.506,0,0,0-1.131.22,1.721,1.721,0,0,0-.549.682c-.049-.025-.089-.058-.142-.081a2.86,2.86,0,0,0-1.115-.225,2.819,2.819,0,0,0-1.109.225,2.153,2.153,0,0,0-.878.668,1.664,1.664,0,0,0-.342,1.049,1.7,1.7,0,0,0,.342,1.065,2.106,2.106,0,0,0,.726.586,1.97,1.97,0,0,0-.516.209,1.05,1.05,0,0,0-.519.966,1.078,1.078,0,0,0,.348.823c.012.011.029.019.042.029a1.4,1.4,0,0,0-.153.125,1.154,1.154,0,0,0-.3.779m1.645-5.7a.8.8,0,0,1,.718-.425.806.806,0,0,1,.723.431,2.569,2.569,0,0,1,0,2.251.806.806,0,0,1-.723.431.794.794,0,0,1-.718-.425,2.649,2.649,0,0,1,0-2.263m-.022,5.095h1.854a1.032,1.032,0,0,1,.641.165.523.523,0,0,1,.209.431.7.7,0,0,1-.491.629,2.934,2.934,0,0,1-1.253.232,2.116,2.116,0,0,1-1.335-.353,1.1,1.1,0,0,1-.43-.928,1.61,1.61,0,0,1,.026-.275,2.692,2.692,0,0,0,.779.1" transform="translate(-95.234 -25.488)" fill="#fff"/>
      <path id="Tracé_14" data-name="Tracé 14" d="M183.174,47.036a2.177,2.177,0,0,0-.822-.972,2.44,2.44,0,0,0-1.364-.364,2.816,2.816,0,0,0-1.4.348,2.4,2.4,0,0,0-.96.993,3.15,3.15,0,0,0-.342,1.5,3.038,3.038,0,0,0,.376,1.545,2.487,2.487,0,0,0,.993.983,2.763,2.763,0,0,0,1.324.331,2.53,2.53,0,0,0,1.082-.227,2.606,2.606,0,0,0,.828-.6,2.508,2.508,0,0,0,.508-.789l-.044-.033a3.389,3.389,0,0,1-.889.557,2.322,2.322,0,0,1-.877.171,1.615,1.615,0,0,1-1-.3,1.807,1.807,0,0,1-.6-.839,3.391,3.391,0,0,1-.177-.944h3.632a3.361,3.361,0,0,0-.265-1.358m-3.388,1.085c0-.009,0-.016,0-.025a3,3,0,0,1,.282-1.419.954.954,0,0,1,.9-.569.856.856,0,0,1,.8.474,2.832,2.832,0,0,1,.281,1.27Z" transform="translate(-102.722 -26.331)" fill="#fff"/>
      <path id="Tracé_15" data-name="Tracé 15" d="M197.356,50.347a4.067,4.067,0,0,1-.061-.717V47.566a1.791,1.791,0,0,0-.519-1.391,1.838,1.838,0,0,0-1.291-.475,1.928,1.928,0,0,0-1.142.348,2.55,2.55,0,0,0-.635.688v-.97h-1.644v.045l.043.155q.1.408.16.751a4.046,4.046,0,0,1,.061.717v2.2a4.026,4.026,0,0,1-.061.717q-.06.343-.16.751l-.043.154V51.3h1.9v-.045l-.033-.154c-.066-.273-.12-.523-.16-.751a4.027,4.027,0,0,1-.061-.717V47.068a1.873,1.873,0,0,1,1.159-.5,1.1,1.1,0,0,1,.757.3,1.149,1.149,0,0,1,.3.872V49.63a4.15,4.15,0,0,1-.061.717q-.062.343-.171.751l-.033.154V51.3h1.9v-.045l-.033-.154q-.11-.409-.17-.751" transform="translate(-110.662 -26.331)" fill="#fff"/>
      <path id="Tracé_16" data-name="Tracé 16" d="M210.176,51.18a2.484,2.484,0,0,0,.8-.574,2.638,2.638,0,0,0,.508-.779l-.032-.022a2.717,2.717,0,0,1-1.711.674,1.636,1.636,0,0,1-.988-.292,1.784,1.784,0,0,1-.607-.812,3.329,3.329,0,0,1-.2-1.225,3.22,3.22,0,0,1,.133-1.021,1.769,1.769,0,0,1,.425-.739.963.963,0,0,1,.712-.282,1.528,1.528,0,0,1,1.065.5,5.63,5.63,0,0,1,.9,1.137h.054l-.022-1.523a3.185,3.185,0,0,1-.32-.133,8.683,8.683,0,0,0-.861-.281,3.32,3.32,0,0,0-.85-.1,2.924,2.924,0,0,0-1.424.337,2.376,2.376,0,0,0-.966.977,3.147,3.147,0,0,0-.348,1.523,3.06,3.06,0,0,0,.376,1.562,2.465,2.465,0,0,0,.993.971,2.8,2.8,0,0,0,1.324.326,2.48,2.48,0,0,0,1.043-.216" transform="translate(-118.945 -26.331)" fill="#fff"/>
      <path id="Tracé_17" data-name="Tracé 17" d="M220.91,51.065a2.768,2.768,0,0,0,1.325.331,2.529,2.529,0,0,0,1.082-.227,2.619,2.619,0,0,0,.828-.6,2.519,2.519,0,0,0,.507-.789l-.044-.033a3.394,3.394,0,0,1-.888.557,2.333,2.333,0,0,1-.877.171,1.616,1.616,0,0,1-1-.3,1.81,1.81,0,0,1-.6-.839,3.375,3.375,0,0,1-.177-.944H224.7a3.365,3.365,0,0,0-.265-1.358,2.179,2.179,0,0,0-.822-.972,2.44,2.44,0,0,0-1.363-.364,2.813,2.813,0,0,0-1.4.348,2.4,2.4,0,0,0-.96.993,3.152,3.152,0,0,0-.342,1.5,3.035,3.035,0,0,0,.376,1.545,2.491,2.491,0,0,0,.993.983m.414-4.388a.954.954,0,0,1,.9-.569.854.854,0,0,1,.8.474,2.821,2.821,0,0,1,.281,1.27l-2.262.268c0-.009,0-.017,0-.025a3,3,0,0,1,.282-1.419" transform="translate(-126.494 -26.331)" fill="#fff"/>
      <path id="Tracé_18" data-name="Tracé 18" d="M243.009,50.347q-.061.343-.171.751l-.033.154V51.3h1.9v-.045l-.033-.154q-.11-.409-.17-.751a4.066,4.066,0,0,1-.061-.717V47.566a1.79,1.79,0,0,0-.519-1.391,1.836,1.836,0,0,0-1.291-.475,1.929,1.929,0,0,0-1.143.348,2.549,2.549,0,0,0-.635.688v-.97h-1.644v.045l.044.155c.066.272.12.523.16.751a4.046,4.046,0,0,1,.061.717v2.2a4.026,4.026,0,0,1-.061.717c-.04.228-.094.479-.16.751l-.044.154V51.3h1.9v-.045l-.033-.154q-.1-.409-.16-.751a4.027,4.027,0,0,1-.061-.717V47.068a1.873,1.873,0,0,1,1.16-.5,1.1,1.1,0,0,1,.756.3,1.148,1.148,0,0,1,.3.872V49.63a4.15,4.15,0,0,1-.061.717" transform="translate(-137.825 -26.331)" fill="#fff"/>
      <path id="Tracé_19" data-name="Tracé 19" d="M258.178,51.363a1.055,1.055,0,0,0,.662-.2.923.923,0,0,0,.342-.546l-.021-.033q-.366.143-.53-.011a.851.851,0,0,1-.166-.618V47.477a1.677,1.677,0,0,0-.519-1.3,2.181,2.181,0,0,0-1.523-.474,6.414,6.414,0,0,0-1.1.11,11.123,11.123,0,0,0-1.275.309v1.413h.056a8.56,8.56,0,0,1,1.237-.988,2,2,0,0,1,1-.392.605.605,0,0,1,.535.3,1.816,1.816,0,0,1,.193.96v.678a2.359,2.359,0,0,0-.259-.075,2.559,2.559,0,0,0-.447-.061,3.074,3.074,0,0,0-1.342.094,2.089,2.089,0,0,0-.993.624,1.5,1.5,0,0,0-.37,1.015,1.769,1.769,0,0,0,.2.833,1.539,1.539,0,0,0,.612.629,1.872,1.872,0,0,0,.96.238,1.992,1.992,0,0,0,1.623-.779c.022-.029.033-.056.053-.084a1.1,1.1,0,0,0,.251.52,1.041,1.041,0,0,0,.811.32m-1.352-.95a1.094,1.094,0,0,1-.657.221,1.006,1.006,0,0,1-.762-.314,1.132,1.132,0,0,1-.3-.811,1.094,1.094,0,0,1,.2-.651,1.132,1.132,0,0,1,.612-.414,2.158,2.158,0,0,1,.972-.038,1.108,1.108,0,0,0,.176.008v1.736c0,.011,0,.02,0,.031a1.614,1.614,0,0,1-.25.234" transform="translate(-146.154 -26.331)" fill="#fff"/>
      <path id="Tracé_20" data-name="Tracé 20" d="M269.074,47.972a.922.922,0,0,1-.2-.657V43.938h1.512v-.453H268.87V41.741h-.089a5,5,0,0,1-.861,1.071,3.749,3.749,0,0,1-1.236.74v.387h.806v3.522a1.81,1.81,0,0,0,.375,1.22,1.3,1.3,0,0,0,1.038.436,1.564,1.564,0,0,0,1.021-.337,2.165,2.165,0,0,0,.634-.866,1.864,1.864,0,0,1-.915.276.746.746,0,0,1-.569-.215" transform="translate(-153.657 -24.05)" fill="#fff"/>
      <path id="Tracé_21" data-name="Tracé 21" d="M278.19,41.07a.887.887,0,0,0,.634-.259.873.873,0,0,0,.006-1.259.922.922,0,0,0-1.281,0,.841.841,0,0,0-.265.623.856.856,0,0,0,.265.635.882.882,0,0,0,.64.259" transform="translate(-159.765 -22.64)" fill="#fff"/>
      <path id="Tracé_22" data-name="Tracé 22" d="M278.944,49.718V45.854H277.31V45.9l.044.155q.1.408.16.75a4.174,4.174,0,0,1,.06.717v2.2a4.152,4.152,0,0,1-.06.717q-.062.343-.171.751l-.033.154v.044h1.9v-.044l-.044-.154c-.066-.273-.12-.523-.159-.751a4.027,4.027,0,0,1-.061-.717" transform="translate(-159.779 -26.42)" fill="#fff"/>
      <path id="Tracé_23" data-name="Tracé 23" d="M284.739,51.059a3.131,3.131,0,0,0,2.826,0,2.527,2.527,0,0,0,1.026-.988,3.033,3.033,0,0,0,.381-1.557A2.9,2.9,0,0,0,288.592,47a2.535,2.535,0,0,0-1.021-.966,3.032,3.032,0,0,0-1.412-.33,3.064,3.064,0,0,0-1.419.325,2.467,2.467,0,0,0-1.01.96,2.948,2.948,0,0,0-.375,1.529,3.066,3.066,0,0,0,.375,1.557,2.507,2.507,0,0,0,1.01.988m.287-3.753a2.109,2.109,0,0,1,.425-.866.919.919,0,0,1,1.413,0,2.1,2.1,0,0,1,.425.866,4.854,4.854,0,0,1,.138,1.209,5.114,5.114,0,0,1-.138,1.237,2.127,2.127,0,0,1-.43.888.9.9,0,0,1-.7.337.888.888,0,0,1-.712-.337,2.2,2.2,0,0,1-.42-.884,5.08,5.08,0,0,1-.138-1.242,4.852,4.852,0,0,1,.138-1.209" transform="translate(-163.262 -26.331)" fill="#fff"/>
      <path id="Tracé_24" data-name="Tracé 24" d="M299.893,51.3v-.045l-.033-.154q-.1-.409-.16-.751a4.028,4.028,0,0,1-.061-.717V47.068a1.873,1.873,0,0,1,1.159-.5,1.1,1.1,0,0,1,.757.3,1.148,1.148,0,0,1,.3.872V49.63a4.155,4.155,0,0,1-.061.717q-.061.343-.171.751l-.033.154V51.3h1.9v-.045l-.033-.154q-.11-.409-.17-.751a4.074,4.074,0,0,1-.061-.717V47.566a1.791,1.791,0,0,0-.519-1.391,1.839,1.839,0,0,0-1.291-.475,1.929,1.929,0,0,0-1.143.348,2.549,2.549,0,0,0-.635.688v-.97h-1.644v.045l.043.155q.1.408.16.751a4.044,4.044,0,0,1,.061.717v2.2a4.03,4.03,0,0,1-.061.717q-.06.343-.16.751l-.043.154V51.3h1.9Z" transform="translate(-171.697 -26.331)" fill="#fff"/>
      <path id="Tracé_25" data-name="Tracé 25" d="M314.226,51.384a1.99,1.99,0,0,0,1.623-.779c.022-.029.033-.056.053-.084a1.1,1.1,0,0,0,.251.52,1.039,1.039,0,0,0,.811.32,1.056,1.056,0,0,0,.663-.2.925.925,0,0,0,.342-.546l-.021-.033q-.366.143-.53-.011a.851.851,0,0,1-.166-.618V47.476a1.677,1.677,0,0,0-.519-1.3,2.179,2.179,0,0,0-1.523-.475,6.422,6.422,0,0,0-1.1.11,11.123,11.123,0,0,0-1.275.309v1.413h.056a8.582,8.582,0,0,1,1.237-.988,2,2,0,0,1,1-.392.6.6,0,0,1,.535.3,1.812,1.812,0,0,1,.193.96v.678a2.33,2.33,0,0,0-.259-.075,2.554,2.554,0,0,0-.447-.061,3.072,3.072,0,0,0-1.341.094,2.09,2.09,0,0,0-.993.624,1.5,1.5,0,0,0-.37,1.015,1.774,1.774,0,0,0,.2.833,1.542,1.542,0,0,0,.612.629,1.873,1.873,0,0,0,.96.238m-.127-2.528a1.135,1.135,0,0,1,.612-.414,2.158,2.158,0,0,1,.972-.038,1.11,1.11,0,0,0,.176.008v1.736c0,.011,0,.02,0,.031a1.614,1.614,0,0,1-.25.234,1.1,1.1,0,0,1-.657.221,1.006,1.006,0,0,1-.762-.314,1.133,1.133,0,0,1-.3-.811,1.094,1.094,0,0,1,.2-.651" transform="translate(-180.025 -26.331)" fill="#fff"/>
      <path id="Tracé_26" data-name="Tracé 26" d="M328.238,46.76a4.067,4.067,0,0,1-.061-.717V39.474l-1.423.177-.265.044.011.044c.007.022.025.071.054.144q.1.342.171.69a3.728,3.728,0,0,1,.073.755v4.714a4.068,4.068,0,0,1-.061.717q-.06.343-.171.751l-.033.154v.045h1.91v-.045l-.044-.154q-.1-.409-.16-.751" transform="translate(-188.114 -22.744)" fill="#fff"/>
      <path id="Tracé_27" data-name="Tracé 27" d="M336.628,50.308a2.333,2.333,0,0,1-.877.171,1.616,1.616,0,0,1-1-.3,1.81,1.81,0,0,1-.6-.839,3.375,3.375,0,0,1-.177-.944h3.632a3.365,3.365,0,0,0-.265-1.358,2.179,2.179,0,0,0-.822-.972,2.44,2.44,0,0,0-1.363-.364,2.813,2.813,0,0,0-1.4.348,2.4,2.4,0,0,0-.96.993,3.152,3.152,0,0,0-.342,1.5,3.035,3.035,0,0,0,.376,1.545,2.491,2.491,0,0,0,.993.983,2.768,2.768,0,0,0,1.324.331,2.53,2.53,0,0,0,1.082-.227,2.619,2.619,0,0,0,.828-.6,2.519,2.519,0,0,0,.507-.789l-.044-.033a3.394,3.394,0,0,1-.888.557m-2.4-3.631a.954.954,0,0,1,.9-.569.854.854,0,0,1,.8.474,2.821,2.821,0,0,1,.281,1.27l-2.262.268c0-.009,0-.017,0-.025a3,3,0,0,1,.282-1.419" transform="translate(-191.55 -26.331)" fill="#fff"/>
      <path id="Tracé_28" data-name="Tracé 28" d="M156.49,70.514a4.035,4.035,0,0,1-.061-.717V63.228L155,63.4l-.353.055.011.033c.008.03.019.066.033.111a3.411,3.411,0,0,1,.353,1.479v1.6a1.8,1.8,0,0,0-.463-.472,1.926,1.926,0,0,0-1.115-.342,2.074,2.074,0,0,0-1.126.326,2.3,2.3,0,0,0-.834.971,4.026,4.026,0,0,0-.005,3.107,2.3,2.3,0,0,0,.811.966,1.978,1.978,0,0,0,1.1.326,2.02,2.02,0,0,0,1.065-.3,2,2,0,0,0,.631-.629c0,.008,0,.019,0,.028a3.061,3.061,0,0,0,.187.519c.022.052.042.1.061.149s.035.094.049.138h1.281v-.045l-.044-.154q-.1-.409-.16-.751m-1.8.117a1.251,1.251,0,0,1-.7.215,1.031,1.031,0,0,1-.977-.613,3.376,3.376,0,0,1-.315-1.551,3.283,3.283,0,0,1,.155-1.054,1.609,1.609,0,0,1,.452-.718,1.071,1.071,0,0,1,.729-.259,1.267,1.267,0,0,1,.707.209,2.021,2.021,0,0,1,.309.253v2.915c0,.1.006.2.014.288a2.553,2.553,0,0,1-.373.314" transform="translate(-87.115 -36.43)" fill="#fff"/>
      <path id="Tracé_29" data-name="Tracé 29" d="M170.542,70.79a2.178,2.178,0,0,0-.822-.972,2.443,2.443,0,0,0-1.363-.364,2.817,2.817,0,0,0-1.4.348,2.4,2.4,0,0,0-.96.993,3.15,3.15,0,0,0-.342,1.5,3.038,3.038,0,0,0,.376,1.545,2.487,2.487,0,0,0,.993.983,2.763,2.763,0,0,0,1.324.331,2.53,2.53,0,0,0,1.082-.227,2.612,2.612,0,0,0,.828-.6,2.509,2.509,0,0,0,.507-.789l-.044-.033a3.389,3.389,0,0,1-.889.557,2.321,2.321,0,0,1-.877.171,1.615,1.615,0,0,1-1-.3,1.81,1.81,0,0,1-.6-.839,3.39,3.39,0,0,1-.177-.944h3.632a3.363,3.363,0,0,0-.265-1.358m-3.388,1.085c0-.009,0-.016,0-.025a3,3,0,0,1,.282-1.419.954.954,0,0,1,.9-.569.856.856,0,0,1,.8.474,2.821,2.821,0,0,1,.281,1.27Z" transform="translate(-95.444 -40.018)" fill="#fff"/>
      <path id="Tracé_30" data-name="Tracé 30" d="M186.964,70.514a4.025,4.025,0,0,1-.061-.717V63.228l-1.423.177-.265.044.011.044c.006.022.025.071.054.144q.1.343.171.69a3.706,3.706,0,0,1,.073.756V69.8a4.027,4.027,0,0,1-.061.717q-.06.343-.171.751l-.033.154v.045h1.91v-.045l-.045-.154c-.066-.273-.12-.523-.16-.751" transform="translate(-106.716 -36.43)" fill="#fff"/>
      <path id="Tracé_31" data-name="Tracé 31" d="M195.989,74.323a.851.851,0,0,1-.166-.618V71.232a1.677,1.677,0,0,0-.519-1.3,2.181,2.181,0,0,0-1.523-.474,6.414,6.414,0,0,0-1.1.11,11.121,11.121,0,0,0-1.275.309v1.413h.055A8.561,8.561,0,0,1,192.7,70.3a2,2,0,0,1,1-.392.606.606,0,0,1,.535.3,1.816,1.816,0,0,1,.193.96v.678a2.359,2.359,0,0,0-.259-.075,2.607,2.607,0,0,0-.447-.061,3.08,3.08,0,0,0-1.342.094,2.089,2.089,0,0,0-.993.624,1.505,1.505,0,0,0-.37,1.015,1.77,1.77,0,0,0,.2.833,1.539,1.539,0,0,0,.612.629,1.872,1.872,0,0,0,.96.238,1.992,1.992,0,0,0,1.623-.779c.022-.029.033-.056.053-.084a1.1,1.1,0,0,0,.251.52,1.04,1.04,0,0,0,.811.32,1.055,1.055,0,0,0,.662-.2.923.923,0,0,0,.342-.546l-.021-.033q-.366.143-.53-.011m-1.805-.155a1.093,1.093,0,0,1-.657.22,1.006,1.006,0,0,1-.762-.314,1.132,1.132,0,0,1-.3-.811,1.1,1.1,0,0,1,.2-.651,1.134,1.134,0,0,1,.613-.414,2.158,2.158,0,0,1,.972-.038,1.106,1.106,0,0,0,.176.008V73.9c0,.011,0,.02,0,.031a1.614,1.614,0,0,1-.25.234" transform="translate(-110.062 -40.018)" fill="#fff"/>
      <path id="Tracé_32" data-name="Tracé 32" d="M213.87,69.379a1.764,1.764,0,0,0-.812.48,2.482,2.482,0,0,0-.414.606v-1.02H211v.044l.043.155q.1.408.16.751a4.041,4.041,0,0,1,.061.717v2.2a4.035,4.035,0,0,1-.061.718q-.06.342-.16.751l-.043.154v.045h1.9v-.045l-.033-.154c-.066-.273-.12-.523-.16-.751a4.034,4.034,0,0,1-.061-.718V70.743a1.337,1.337,0,0,1,.618-.3,1.358,1.358,0,0,1,.746.077,2.007,2.007,0,0,1,.645.42h.045l.209-1.5a1.75,1.75,0,0,0-1.038-.055" transform="translate(-121.573 -39.943)" fill="#fff"/>
      <path id="Tracé_33" data-name="Tracé 33" d="M225.839,70.79a2.178,2.178,0,0,0-.822-.972,2.444,2.444,0,0,0-1.364-.364,2.817,2.817,0,0,0-1.4.348,2.4,2.4,0,0,0-.96.993,3.15,3.15,0,0,0-.342,1.5,3.042,3.042,0,0,0,.376,1.545,2.494,2.494,0,0,0,.993.983,2.763,2.763,0,0,0,1.324.331,2.53,2.53,0,0,0,1.082-.227,2.606,2.606,0,0,0,.828-.6,2.5,2.5,0,0,0,.508-.789l-.044-.033a3.389,3.389,0,0,1-.889.557,2.321,2.321,0,0,1-.877.171,1.615,1.615,0,0,1-1-.3,1.807,1.807,0,0,1-.6-.839,3.39,3.39,0,0,1-.177-.944H226.1a3.363,3.363,0,0,0-.265-1.358m-3.388,1.085c0-.009,0-.016,0-.025a3,3,0,0,1,.282-1.419.954.954,0,0,1,.9-.569.856.856,0,0,1,.8.474,2.821,2.821,0,0,1,.281,1.27Z" transform="translate(-127.305 -40.018)" fill="#fff"/>
      <path id="Tracé_34" data-name="Tracé 34" d="M238,74.234a1.637,1.637,0,0,1-.988-.292,1.787,1.787,0,0,1-.607-.812,3.338,3.338,0,0,1-.2-1.225,3.219,3.219,0,0,1,.133-1.021,1.765,1.765,0,0,1,.425-.739.961.961,0,0,1,.712-.282,1.528,1.528,0,0,1,1.065.5,5.618,5.618,0,0,1,.9,1.137h.054l-.022-1.523a3.185,3.185,0,0,1-.32-.133,8.682,8.682,0,0,0-.861-.281,3.321,3.321,0,0,0-.85-.1,2.928,2.928,0,0,0-1.424.336,2.377,2.377,0,0,0-.966.977,3.146,3.146,0,0,0-.348,1.523,3.06,3.06,0,0,0,.376,1.563,2.466,2.466,0,0,0,.993.971,2.8,2.8,0,0,0,1.324.326,2.465,2.465,0,0,0,1.843-.79,2.637,2.637,0,0,0,.508-.779l-.032-.022a2.717,2.717,0,0,1-1.711.674" transform="translate(-135.228 -40.018)" fill="#fff"/>
      <path id="Tracé_35" data-name="Tracé 35" d="M253.336,70.514a4.109,4.109,0,0,1-.061-.717V67.732a1.792,1.792,0,0,0-.519-1.391,1.841,1.841,0,0,0-1.291-.475,1.963,1.963,0,0,0-1.137.342,2.729,2.729,0,0,0-.64.632V63.228l-1.413.177-.265.044.012.044c.006.022.025.071.054.144q.1.343.172.69a3.772,3.772,0,0,1,.071.756V69.8a4.027,4.027,0,0,1-.06.717q-.06.343-.172.751l-.033.154v.045h1.9v-.045l-.033-.154q-.111-.409-.171-.751a4.026,4.026,0,0,1-.061-.717V67.185a1.865,1.865,0,0,1,1.115-.436,1.042,1.042,0,0,1,1.1,1.16V69.8a4.15,4.15,0,0,1-.06.717c-.041.228-.1.479-.171.751l-.034.154v.045h1.9v-.045l-.033-.154q-.11-.409-.171-.751" transform="translate(-142.897 -36.43)" fill="#fff"/>
      <path id="Tracé_36" data-name="Tracé 36" d="M267.406,70.79a2.178,2.178,0,0,0-.822-.972,2.444,2.444,0,0,0-1.364-.364,2.816,2.816,0,0,0-1.4.348,2.4,2.4,0,0,0-.96.993,3.145,3.145,0,0,0-.342,1.5,3.038,3.038,0,0,0,.376,1.545,2.487,2.487,0,0,0,.993.983,2.763,2.763,0,0,0,1.324.331,2.53,2.53,0,0,0,1.082-.227,2.606,2.606,0,0,0,.828-.6,2.5,2.5,0,0,0,.508-.789l-.044-.033a3.389,3.389,0,0,1-.889.557,2.321,2.321,0,0,1-.877.171,1.615,1.615,0,0,1-1-.3,1.807,1.807,0,0,1-.6-.839,3.39,3.39,0,0,1-.177-.944h3.632a3.362,3.362,0,0,0-.265-1.358m-3.388,1.085c0-.009,0-.016,0-.025a3,3,0,0,1,.282-1.419.954.954,0,0,1,.9-.569.855.855,0,0,1,.8.474,2.82,2.82,0,0,1,.281,1.27Z" transform="translate(-151.255 -40.018)" fill="#fff"/>
      <path id="Tracé_37" data-name="Tracé 37" d="M279.166,69.379a1.764,1.764,0,0,0-.812.48,2.482,2.482,0,0,0-.414.606v-1.02H276.3v.044l.043.155q.1.408.16.751a4.041,4.041,0,0,1,.061.717v2.2a4.035,4.035,0,0,1-.061.718q-.06.342-.16.751l-.043.154v.045h1.9v-.045l-.033-.154c-.066-.273-.12-.523-.16-.751a4.032,4.032,0,0,1-.061-.718V70.743a1.335,1.335,0,0,1,.618-.3,1.358,1.358,0,0,1,.746.077,2.007,2.007,0,0,1,.645.42h.044l.209-1.5a1.75,1.75,0,0,0-1.038-.055" transform="translate(-159.195 -39.943)" fill="#fff"/>
      <path id="Tracé_38" data-name="Tracé 38" d="M289.547,74.234a1.635,1.635,0,0,1-.988-.292,1.781,1.781,0,0,1-.607-.812,3.33,3.33,0,0,1-.2-1.225,3.22,3.22,0,0,1,.133-1.021,1.769,1.769,0,0,1,.425-.739.962.962,0,0,1,.712-.282,1.528,1.528,0,0,1,1.065.5,5.619,5.619,0,0,1,.9,1.137h.054l-.022-1.523a3.182,3.182,0,0,1-.32-.133,8.682,8.682,0,0,0-.861-.281,3.321,3.321,0,0,0-.85-.1,2.928,2.928,0,0,0-1.424.336,2.38,2.38,0,0,0-.966.977,3.146,3.146,0,0,0-.348,1.523,3.06,3.06,0,0,0,.375,1.563,2.466,2.466,0,0,0,.993.971,2.8,2.8,0,0,0,1.324.326,2.465,2.465,0,0,0,1.843-.79,2.638,2.638,0,0,0,.508-.779l-.032-.022a2.717,2.717,0,0,1-1.711.674" transform="translate(-164.928 -40.018)" fill="#fff"/>
      <path id="Tracé_39" data-name="Tracé 39" d="M304.881,70.514a4.151,4.151,0,0,1-.061-.717V67.732a1.79,1.79,0,0,0-.519-1.391,1.839,1.839,0,0,0-1.291-.475,1.964,1.964,0,0,0-1.137.342,2.754,2.754,0,0,0-.64.632V63.228l-1.412.177-.265.044.011.044c.007.022.025.071.054.144q.1.343.171.69a3.742,3.742,0,0,1,.072.756V69.8a4.025,4.025,0,0,1-.061.717q-.06.343-.171.751l-.033.154v.045h1.9v-.045l-.032-.154q-.111-.409-.171-.751a4.027,4.027,0,0,1-.061-.717V67.185a1.866,1.866,0,0,1,1.115-.436,1.042,1.042,0,0,1,1.1,1.16V69.8a4.152,4.152,0,0,1-.06.717q-.062.343-.171.751l-.033.154v.045h1.9v-.045l-.033-.154q-.11-.409-.171-.751" transform="translate(-172.596 -36.43)" fill="#fff"/>
      <path id="Tracé_40" data-name="Tracé 40" d="M318.953,70.79a2.178,2.178,0,0,0-.822-.972,2.443,2.443,0,0,0-1.363-.364,2.817,2.817,0,0,0-1.4.348,2.4,2.4,0,0,0-.96.993,3.15,3.15,0,0,0-.342,1.5,3.038,3.038,0,0,0,.376,1.545,2.49,2.49,0,0,0,.993.983,2.763,2.763,0,0,0,1.324.331,2.53,2.53,0,0,0,1.082-.227,2.606,2.606,0,0,0,.828-.6,2.5,2.5,0,0,0,.508-.789l-.044-.033a3.394,3.394,0,0,1-.888.557,2.325,2.325,0,0,1-.878.171,1.615,1.615,0,0,1-1-.3,1.807,1.807,0,0,1-.6-.839,3.389,3.389,0,0,1-.177-.944h3.632a3.362,3.362,0,0,0-.265-1.358m-3.388,1.085c0-.009,0-.016,0-.025a3,3,0,0,1,.282-1.419.954.954,0,0,1,.9-.569.856.856,0,0,1,.8.474,2.821,2.821,0,0,1,.281,1.27Z" transform="translate(-180.955 -40.018)" fill="#fff"/>
    </g>
  </g>
</svg>
