<svg xmlns="http://www.w3.org/2000/svg" xmlns:xlink="http://www.w3.org/1999/xlink" width="50" height="50" viewBox="0 0 50 50">
  <defs>
    <clipPath id="clip-path">
      <rect id="Rectangle_44" data-name="Rectangle 44" width="20.5" height="27.341" fill="#12121a"/>
    </clipPath>
  </defs>
  <g id="Groupe_116" data-name="Groupe 116" transform="translate(-270 -554)">
    <circle id="Ellipse_20" data-name="Ellipse 20" cx="25" cy="25" r="25" transform="translate(270 554)" fill="#aeeca5"/>
    <g id="Groupe_115" data-name="Groupe 115" transform="translate(284.75 563.751)">
      <g id="Groupe_114" data-name="Groupe 114" clip-path="url(#clip-path)">
        <path id="Tracé_492" data-name="Tracé 492" d="M18.31,27.341H2.19a.234.234,0,0,0-.064-.042A2.559,2.559,0,0,1,0,24.6q0-5.83,0-11.66a2.566,2.566,0,0,1,2.687-2.68h.729c0-1.108-.01-2.182,0-3.257A9.5,9.5,0,0,1,3.529,5.65,6.829,6.829,0,0,1,17.082,6.924c0,1.014,0,2.028,0,3.042v.3c.331,0,.623-.006.916,0a2.538,2.538,0,0,1,2.493,2.491q.022,6.044,0,12.087a2.519,2.519,0,0,1-1.683,2.341c-.164.06-.333.106-.5.159m-3.51-17.1c0-.888.008-1.758,0-2.627a11.523,11.523,0,0,0-.072-1.569A4.547,4.547,0,0,0,5.7,6.9c0,.88,0,1.761,0,2.641,0,.229,0,.458,0,.7ZM9.115,20.464c0,.151,0,.3,0,.453,0,.276-.008.552.008.827a1.128,1.128,0,0,0,1.116,1.044,1.113,1.113,0,0,0,1.134-1.05c.022-.782.015-1.565.006-2.347a.539.539,0,0,1,.242-.506,2.224,2.224,0,0,0,.738-2.645,2.276,2.276,0,0,0-4.305.259A2.216,2.216,0,0,0,8.9,18.906a.456.456,0,0,1,.217.438c-.014.373,0,.747,0,1.12" transform="translate(-0.001 0)" fill="#12121a"/>
      </g>
    </g>
  </g>
</svg>
