<svg id="Groupe_324" data-name="Groupe 324" xmlns="http://www.w3.org/2000/svg" xmlns:xlink="http://www.w3.org/1999/xlink" width="43" height="43" viewBox="0 0 43 43">
  <defs>
    <clipPath id="clip-path">
      <rect id="Rectangle_110" data-name="Rectangle 110" width="43" height="43" fill="none"/>
    </clipPath>
  </defs>
  <g id="Groupe_307" data-name="Groupe 307" clip-path="url(#clip-path)">
    <path id="Tracé_1148" data-name="Tracé 1148" d="M27.183,11.786c-1.891-.3-3.8-.61-5.711-.882a.7.7,0,0,1-.612-.473c-.816-1.8-1.655-3.588-2.463-5.389a2.147,2.147,0,0,0-4.047-.014q-1.262,2.734-2.579,5.437a.839.839,0,0,1-.532.4c-1.848.314-3.7.615-5.56.879A2.17,2.17,0,0,0,3.729,13.2a2.144,2.144,0,0,0,.659,2.347q2.067,2.06,4.1,4.151a.777.777,0,0,1,.236.541c-.106.839-.265,1.671-.4,2.508-.236,1.376-.449,2.751-.671,4.113l-.012.007a5.363,5.363,0,0,0,.083.612,2.113,2.113,0,0,0,3.172,1.281Q13.411,27.4,15.912,26a.754.754,0,0,1,.86,0c1.655.946,3.323,1.891,4.99,2.813a2.127,2.127,0,0,0,3.193-2.231c-.336-2.049-.669-4.1-.976-6.146a.94.94,0,0,1,.217-.685c1.388-1.456,2.8-2.886,4.2-4.328a2.066,2.066,0,0,0,.532-2.2,2.044,2.044,0,0,0-1.749-1.437" transform="translate(4.927 4.916)" fill="#002a41"/>
    <path id="Tracé_1149" data-name="Tracé 1149" d="M21.286,0a21.275,21.275,0,0,0-.225,42.548h.2A21.274,21.274,0,0,0,21.286,0M33.327,20.343c-1.4,1.442-2.815,2.872-4.2,4.328a.94.94,0,0,0-.217.685c.307,2.049.641,4.1.976,6.146a2.128,2.128,0,0,1-3.193,2.231c-1.666-.922-3.335-1.867-4.99-2.813a.754.754,0,0,0-.86,0q-2.5,1.4-5.018,2.761A2.113,2.113,0,0,1,12.649,32.4a5.363,5.363,0,0,1-.083-.612l.012-.007c.222-1.362.435-2.737.671-4.113.139-.837.3-1.669.4-2.508a.777.777,0,0,0-.236-.541q-2.035-2.092-4.1-4.151a2.144,2.144,0,0,1-.659-2.347,2.17,2.17,0,0,1,1.95-1.463c1.858-.265,3.711-.565,5.56-.879a.839.839,0,0,0,.532-.4q1.315-2.7,2.579-5.437a2.147,2.147,0,0,1,4.047.014c.808,1.8,1.648,3.591,2.463,5.389a.7.7,0,0,0,.612.473c1.908.272,3.82.577,5.711.882a2.044,2.044,0,0,1,1.749,1.437,2.066,2.066,0,0,1-.532,2.2" transform="translate(0 0)" fill="#ffeb00"/>
  </g>
</svg>
