<svg xmlns="http://www.w3.org/2000/svg" width="26" height="26" viewBox="0 0 26 26">
  <g id="Groupe_292" data-name="Groupe 292" transform="translate(0.172 0.172)">
    <g id="Groupe_190" data-name="Groupe 190" transform="translate(-0.172 -0.172)">
      <path id="Tracé_317" data-name="Tracé 317" d="M13.008,0a13,13,0,0,0-.139,26h.136a13,13,0,0,0,0-26m8.2,14.742a8.1,8.1,0,0,1-5.334,7.118,6.919,6.919,0,0,1-2.12.48.639.639,0,0,0-.124.035H12.375c-.311-.05-.623-.092-.932-.15a8.213,8.213,0,0,1-6.494-6.35A8.025,8.025,0,0,1,6.564,8.994a8.064,8.064,0,0,1,5-2.976c.211-.04.426-.062.653-.094V4.4c-.234,0-.472,0-.711,0a.761.761,0,0,1-.2-1.5.884.884,0,0,1,.225-.022q1.465,0,2.931,0a.762.762,0,1,1-.01,1.522h-.675V5.928A8.23,8.23,0,0,1,18.272,7.8c.256-.262.5-.526.762-.778a.74.74,0,0,1,.861-.139.769.769,0,0,1,.433.724.8.8,0,0,1-.254.536c-.244.24-.486.482-.733.727a8.142,8.142,0,0,1,1.388,2.4,7.763,7.763,0,0,1,.48,3.47" transform="translate(0 0)" fill="#33ff62"/>
      <path id="Tracé_318" data-name="Tracé 318" d="M158.911,179.762a6.715,6.715,0,1,0,6.72,6.709,6.734,6.734,0,0,0-6.72-6.709m3.545,4.253c-.188.206-.392.4-.589.594l-2.381,2.381a.766.766,0,0,1-1.325-.4.708.708,0,0,1,.208-.643c1-1,1.994-2.005,3-3a1.549,1.549,0,0,1,.431-.235.816.816,0,0,1,.791.455.722.722,0,0,1-.138.844" transform="translate(-145.918 -172.34)" fill="#fff"/>
    </g>
  </g>
</svg>
